{
	"name": "coda",
	"authors": [
		"Alexander Strole"
	],
	"dependencies": {
		"zstd": "~>0.2.0",
		"secured": "~>0.8.7",
	},
	"description": "A minimal D application.",
	"copyright": "Copyright © 2018, Alexander Strole",
	"license": "proprietary",
	"targetPath": "bin",
	"lflags": ["-lz"],
}
